…
> somoza <- mutate(somoza, 
+   start = sum(deaths+survivors) - c(0, cumsum(deaths+survivors)[-8]),
+   width = c(1,2,3,6,12,36,60,NA)[as.numeric(age)],       
+   exposure = width * (start -0.5*(deaths+survivors))/12) |>
+ filter(as.numeric(age) <= 7)

We then list the results, which coincide with Table 7.1 in the
notes.

> library(tibble) # to format exposure for printing
> select(somoza, cohort, age, deaths, exposure) |>
+   mutate(exposure = num(exposure, digits=1))

# A tibble: 21 × 4
# Groups:   cohort [3]
   cohort  age         deaths  exposure
   <fct>   <fct>        <dbl> <num:.1!>
 1 1941-59 0-1 months     168     278.4
 2 1941-59 1-3 months      48     538.8
 3 1941-59 3-6 months      63     794.4
 4 1941-59 6-12 months     89    1550.8
 5 1941-59 1-2 years      102    3006.0
 6 1941-59 2-5 years       81    8743.5
 7 1941-59 5-10 years      40   14270.0
 8 1960-67 0-1 months     197     403.2
 9 1960-67 1-3 months      48     786.0
10 1960-67 3-6 months      62    1165.2
# … with 11 more rows
…
